hw_1
…
hotels_recipe <- recipe(is_canceled ~ ., data = hotels_train) %>%  
  step_mutate_at(children, babies, previous_cancellations, fn = ~as.factor((. > 0))) %>% 
  step_mutate_at(agent, company, fn = ~as.factor(. == "NULL")) %>% 
  step_mutate(country = fct_lump_n(country, 5)) %>% 
  step_normalize(all_numeric()) %>% 
  step_dummy(all_nominal(), -all_outcomes())

hotels_recipe %>% 
  prep(hotels_train) %>% 
  juice()

## # A tibble: 59,693 x 76
##    lead_time arrival_date_we arrival_date_da stays_in_weeken stays_in_week_n
##        <dbl>            <dbl>            <dbl>            <dbl>            <dbl>
##  1     5.94           -0.0113            -1.68          -0.933            -1.32 
##  2    -0.909          -0.0113            -1.68          -0.933            -0.794
##  3    -0.844          -0.0113            -1.68          -0.933            -0.266
##  4    -0.178          -0.0113            -1.68          -0.933             0.262
##  5    -0.272          -0.0113            -1.68          -0.933             0.262
##  6    -0.759          -0.0113            -1.68          -0.933             0.790
##  7    -0.647          -0.0113            -1.68          -0.933             0.790
##  8    -0.975          -0.0113            -1.68          -0.933            -0.794
##  9    -0.909          -0.0113            -1.68          -0.933             0.790
## 10    -0.628          -0.0113            -1.68           0.0713            0.790
## #  with 59,683 more rows, and 71 more variables: adults <dbl>,
## #   is_repeated_guest <dbl>, previous_bookings_not_canceled <dbl>,
## #   booking_changes <dbl>, days_in_waiting_list <dbl>, adr <dbl>,
## #   required_car_parking_spaces <dbl>, total_of_special_requests <dbl>,
## #   is_canceled <fct>, hotel_Resort.Hotel <dbl>,
## #   arrival_date_month_August <dbl>, arrival_date_month_December <dbl>,
## #   arrival_date_month_February <dbl>, arrival_date_month_January <dbl>,
## #   arrival_date_month_July <dbl>, arrival_date_month_June <dbl>,
## #   arrival_date_month_March <dbl>, arrival_date_month_May <dbl>,
…
hotels_lasso_final_mod <- hotels_lasso_final_wf %>% 
  fit(data = hotels_train)

hotels_lasso_final_mod %>% 
  pull_workflow_fit() %>% 
  tidy() 

## # A tibble: 76 x 3
##    term                           estimate      penalty
##    <chr>                             <dbl>        <dbl>
##  1 (Intercept)                     -4.05   0.0000000001
##  2 lead_time                        0.623  0.0000000001
##  3 arrival_date_week_number        -0.183  0.0000000001
##  4 arrival_date_day_of_month        0      0.0000000001
##  5 stays_in_weekend_nights          0.0763 0.0000000001
##  6 stays_in_week_nights             0.150  0.0000000001
##  7 adults                           0.0914 0.0000000001
##  8 is_repeated_guest               -0.247  0.0000000001
##  9 previous_bookings_not_canceled  -0.430  0.0000000001
## 10 booking_changes                 -0.209  0.0000000001
## #  with 66 more rows
…
